LLDB Machine Interface Driver (MI) All rights reserved
Version: 1.0.0.6
Version: GNU gdb (GDB) 7.4 
(This is a MI stub on top of LLDB and not GDB)
All rights reserved.

Creation date 1/7/116 time 17:22:43
File logger path: lldb-mi-log.txt
F,1/7/116 17:22:43,.
F,1/7/116 17:22:43,Application: /usr/bin/lldb-mi-3.5
F,1/7/116 17:22:43,Command line args: 1:'--version' 
F,1/7/116 17:22:43,Version: GNU gdb (GDB) 7.4 
(This is a MI stub on top of LLDB and not GDB)
All rights reserved.

F,1/7/116 17:22:43,Program exited OK
